Analyses Pilot
…
Preparations and General observations

Reading the table, and making sure EventTime is numeric (important column)

df.all <- read.pcibex("results40ppts.csv")

df.all$EventTime <- as.numeric(as.character(df.all$EventTime))

## Warning: NAs introduced by coercion

How long did each participant take?

df.all %>% group_by(id) %>% summarise(duration = (max(EventTime, na.rm=TRUE) - min(EventTime, na.rm=TRUE))/60000)

## # A tibble: 39 x 2
##    id                       duration
##    <fct>                       <dbl>
##  1 54247957fdf99b691fb38467    12.1 
##  2 55cf91b434e9060012e56fba    11.9 
##  3 5751b9a8702d130006285f79     8.54
##  4 57b53ad8a18afd00013e0565    11.2 
##  5 594bc2ffb37e5b0001ef7cd7    10.8 
##  6 5a4c5ffbd5b53b0001f823fb    16.0 
##  7 5a95e9fc89de8200013edcc7    25.8 
##  8 5aa0b9e3dbdb470001ef2184     9.61
##  9 5ad38000b438910001aca894    12.0 
## 10 5af7954257516b0001412633    13.8 
## #  with 29 more rows
…
